<?xml version="1.0" encoding="utf-8"?>
<!-- Generator: Adobe Illustrator 21.1.0, SVG Export Plug-In . SVG Version: 6.00 Build 0)  -->
<svg version="1.1" id="Ebene_1" xmlns="http://www.w3.org/2000/svg" xmlns:xlink="http://www.w3.org/1999/xlink" x="0px" y="0px"
	 viewBox="0 0 963 400" style="enable-background:new 0 0 963 400;" xml:space="preserve">
<style type="text/css">
	.st0{fill:#0072BC;}
	.st1{fill-rule:evenodd;clip-rule:evenodd;fill:#FFFFFF;}
	.st2{fill:#FFFFFF;}
</style>
<rect class="st0" width="963" height="400"/>
<g>
	<polyline class="st1" points="371.2,110.7 368.9,131.9 358.4,131.9 349.9,211.5 317.5,211.5 325.9,131.9 308.4,131.9 310.5,110.7 
		371.2,110.7 	"/>
	<polyline class="st1" points="690.9,110.7 723.3,110.7 715.1,189.4 741.4,189.4 738.8,211.5 680.3,211.5 690.9,110.7 	"/>
	<polyline class="st2" points="302.3,110.7 270.2,110.7 268.2,129.9 300.3,129.9 302.3,110.7 	"/>
	<polyline class="st2" points="259.5,211.4 291.7,211.4 299.1,140.3 267,140.3 259.5,211.4 	"/>
	<polyline class="st2" points="623.8,127.4 632.6,127.4 636.8,172.9 623.4,172.9 616.6,196.1 639,196.1 640.4,211.4 670.8,211.4 
		661.4,110.6 604.3,110.6 570.5,211.6 599.3,211.5 623.8,127.4 	"/>
	<polyline class="st1" points="431.7,110.7 434,131.9 418.8,131.9 410.1,211.5 378,211.5 386.6,131.9 374.5,131.9 376.6,110.7 
		431.7,110.7 	"/>
	<path class="st2" d="M757.3,110.6l-2.1,19.4l34,0c0,0,25.5-2.2,29.3,16.6c0,0,1.8,15.7-3.8,32.4c-5.5,16.6-32.8,12.9-32.8,12.9
		l5.3-50.1l-33.2,0l-7.3,69.8l72.3-0.1c0,0,26.8-6.7,31.9-43.8c5.1-37-10.9-57.1-24.9-57.1H757.3"/>
	<path class="st1" d="M468.4,110.6h-29.5l12,100.9h33.3l21.5-58.9c0,0,0.3-1.9,2-1.9c1.7,0,1.9,1.9,1.9,1.9l10.8,58.9H554
		l33.4-100.9h-29.9l-15.6,50.3c0,0-0.4,1.8-2.4,1.8c-2,0-2.6-2.1-2.6-2.1l-8.5-50.1h-32.8l-18.3,50.7c0,0-0.7,1.6-2.2,1.5
		c-1.5-0.1-2-1.7-2-1.7L468.4,110.6"/>
	<path class="st1" d="M178.4,110.7h-33.6l-33.4,100.9H141l14.9-47.2c0,0,0.6-1.5,2.1-1.5c1.5,0,2.2,1.4,2.2,1.4l0.7,47.1h39
		l21.3-47.4c0,0,0.4-1,2-1c0,0,1.8,0,2,1.8l-5.8,46.8h28.3l10.1-101h-41L194,168.3c0,0-0.7,1.4-2.5,1.8c-2.1,0.5-2.7-2-2.7-2
		L178.4,110.7"/>
</g>
<g>
	<path class="st2" d="M151.7,288.5h-4.5l-9.7-34h-0.1l-9.9,34h-4.6l-11-38.3h3.9l9.4,34h0.1l9.8-34h4.6l9.7,34h0.1l9.6-34h3.6
		L151.7,288.5z"/>
	<path class="st2" d="M185.4,287.6c-2.4,1-5.5,1.5-8.1,1.5c-9.3,0-12.7-6.3-12.7-14.7c0-8.6,4.7-14.7,11.8-14.7
		c7.9,0,11.1,6.4,11.1,13.9v1.8h-19.2c0,5.9,3.2,10.7,9.2,10.7c2.5,0,6.2-1,7.9-2.1V287.6z M183.7,272.5c0-4.9-2-9.7-7.1-9.7
		c-5.1,0-8.2,5.1-8.2,9.7H183.7z"/>
	<path class="st2" d="M193.7,247.3h3.5v17.9h0.1c0.5-1.4,3.2-5.4,8.7-5.4c8.2,0,11.5,6.1,11.5,14.7c0,8.3-3.8,14.7-11.5,14.7
		c-4,0-6.9-1.5-8.7-5.1h-0.1v4.4h-3.5V247.3z M205.5,262.8c-6.3,0-8.3,6.6-8.3,11.7c0,5.1,2.1,11.7,8.3,11.7c6.6,0,8.3-6.3,8.3-11.7
		C213.8,269.1,212.1,262.8,205.5,262.8z"/>
	<path class="st2" d="M224.6,247.3h3.5v17.9h0.1c1.5-3.1,4.6-5.4,8.7-5.4c7.5,0,9.6,5,9.6,11.9v16.7H243v-16.7c0-4.8-0.9-9-6.6-9
		c-6.1,0-8.3,5.8-8.3,10.7v15h-3.5V247.3z"/>
	<path class="st2" d="M266,259.9c9.1,0,13.1,7,13.1,14.7c0,7.6-4,14.7-13.1,14.7c-9.1,0-13.1-7-13.1-14.7
		C253,266.9,257,259.9,266,259.9z M266,286.2c6,0,9.3-5.2,9.3-11.7s-3.2-11.7-9.3-11.7s-9.3,5.2-9.3,11.7S260,286.2,266,286.2z"/>
	<path class="st2" d="M283.5,284.5c2.1,1,4.6,1.8,7.3,1.8c3.3,0,6.2-1.8,6.2-5c0-6.6-13.5-5.6-13.5-13.7c0-5.5,4.5-7.6,9.1-7.6
		c1.5,0,4.4,0.3,6.9,1.3l-0.3,3c-1.8-0.8-4.3-1.3-6.2-1.3c-3.6,0-6,1.1-6,4.7c0,5.2,13.8,4.6,13.8,13.7c0,5.9-5.5,8-9.8,8
		c-2.7,0-5.4-0.3-7.9-1.3L283.5,284.5z"/>
	<path class="st2" d="M319.1,263.5h-6.4v18.1c0,2.5,0.9,4.6,3.7,4.6c1.3,0,2.2-0.3,3.2-0.7l0.2,2.9c-0.8,0.3-2.5,0.8-4.2,0.8
		c-6.1,0-6.4-4.2-6.4-9.3v-16.4h-5.5v-3h5.5v-6.8l3.5-1.2v8h6.4V263.5z"/>
	<path class="st2" d="M328.7,253.1h-3.5v-4.6h3.5V253.1z M325.3,260.5h3.5v28h-3.5V260.5z"/>
	<path class="st2" d="M337.5,267.1c0-2.1,0-4.3-0.2-6.6h3.3v5h0.1c1.2-2.5,3.2-5.7,9.1-5.7c6.9,0,9.6,4.6,9.6,10.8v17.9h-3.5v-17
		c0-5.3-1.9-8.7-6.6-8.7c-6.3,0-8.3,5.5-8.3,10.2v15.5h-3.5V267.1z"/>
	<path class="st2" d="M390.2,286.2c0,7.8-3.5,14.2-13.1,14.2c-3.7,0-7-1-8.5-1.5l0.3-3.5c2.1,1.1,5.2,2,8.2,2
		c8.9,0,9.7-6.5,9.7-14.4h-0.1c-1.9,4.1-4.9,5.5-8.5,5.5c-8.9,0-11.8-7.8-11.8-14c0-8.5,3.3-14.7,11.5-14.7c3.7,0,6.1,0.5,8.7,3.8
		h0.1v-3.2h3.5V286.2z M378.2,285.6c6.3,0,8.5-5.9,8.5-11c0-6.8-2-11.7-8.3-11.7c-6.6,0-8.3,6.3-8.3,11.7
		C370.1,280,372.3,285.6,378.2,285.6z"/>
	<path class="st2" d="M399.6,283.9h4.4v4.6h-4.4V283.9z"/>
	<path class="st2" d="M429.4,250.2h18.8v3.3h-15v13.7h14.2v3.3h-14.2v14.8h15.6v3.3h-19.4V250.2z"/>
	<path class="st2" d="M460,253.1h-3.5v-4.6h3.5V253.1z M456.5,260.5h3.5v28h-3.5V260.5z"/>
	<path class="st2" d="M468.7,267.1c0-2.1,0-4.3-0.2-6.6h3.3v5h0.1c1.2-2.5,3.2-5.7,9.1-5.7c6.9,0,9.6,4.6,9.6,10.8v17.9h-3.5v-17
		c0-5.3-1.9-8.7-6.6-8.7c-6.3,0-8.3,5.5-8.3,10.2v15.5h-3.5V267.1z"/>
	<path class="st2" d="M501.6,263.5h-5.7v-3h5.7v-2c0-5.9,0.2-11.8,7.4-11.8c1.1,0,2.6,0.2,3.2,0.5l-0.2,3c-0.7-0.4-1.8-0.6-2.7-0.6
		c-4.7,0-4.2,5.1-4.2,8.5v2.4h6.3v3H505v25h-3.5V263.5z"/>
	<path class="st2" d="M533.6,284h-0.1c-1.5,3.3-5.4,5.2-8.9,5.2c-8,0-9.2-5.4-9.2-7.9c0-9.4,10-9.8,17.2-9.8h0.7V270
		c0-4.8-1.7-7.2-6.4-7.2c-2.9,0-5.7,0.7-8.2,2.3v-3.3c2.1-1,5.8-1.9,8.2-1.9c6.9,0,9.8,3.1,9.8,10.4v12.4c0,2.3,0,4,0.3,5.9h-3.4
		V284z M533.3,274.4h-1c-6,0-13.1,0.6-13.1,6.8c0,3.7,2.6,5.1,5.8,5.1c8.1,0,8.3-7.1,8.3-10.1V274.4z"/>
	<path class="st2" d="M563.2,264.3c-1.9-0.8-4.1-1.4-6-1.4c-6.8,0-10.5,4.9-10.5,11.7c0,6.4,3.8,11.7,10.2,11.7
		c2.2,0,4.2-0.5,6.3-1.3l0.3,3.2c-2.4,0.8-4.6,1-7.2,1c-9,0-13.4-6.9-13.4-14.7c0-8.6,5.5-14.7,13.8-14.7c3.3,0,5.8,0.8,6.8,1.1
		L563.2,264.3z"/>
	<path class="st2" d="M569.3,247.3h3.5v17.9h0.1c1.5-3.1,4.6-5.4,8.7-5.4c7.5,0,9.6,5,9.6,11.9v16.7h-3.5v-16.7c0-4.8-0.9-9-6.6-9
		c-6.1,0-8.3,5.8-8.3,10.7v15h-3.5V247.3z"/>
	<path class="st2" d="M618.6,253.1h-3.5v-4.6h3.5V253.1z M615.1,260.5h3.5v28h-3.5V260.5z"/>
	<path class="st2" d="M627.3,267.1c0-2.1,0-4.3-0.2-6.6h3.3v5h0.1c1.2-2.5,3.2-5.7,9.1-5.7c6.9,0,9.6,4.6,9.6,10.8v17.9h-3.5v-17
		c0-5.3-1.9-8.7-6.6-8.7c-6.3,0-8.3,5.5-8.3,10.2v15.5h-3.5V267.1z"/>
	<path class="st2" d="M669.9,263.5h-6.4v18.1c0,2.5,0.9,4.6,3.7,4.6c1.3,0,2.2-0.3,3.2-0.7l0.2,2.9c-0.8,0.3-2.5,0.8-4.2,0.8
		c-6.1,0-6.4-4.2-6.4-9.3v-16.4h-5.5v-3h5.5v-6.8l3.5-1.2v8h6.4V263.5z"/>
	<path class="st2" d="M694.9,287.6c-2.4,1-5.5,1.5-8.1,1.5c-9.3,0-12.7-6.3-12.7-14.7c0-8.6,4.7-14.7,11.8-14.7
		c7.9,0,11.1,6.4,11.1,13.9v1.8h-19.2c0,5.9,3.2,10.7,9.2,10.7c2.5,0,6.2-1,7.9-2.1V287.6z M693.2,272.5c0-4.9-2-9.7-7.1-9.7
		c-5.1,0-8.2,5.1-8.2,9.7H693.2z"/>
	<path class="st2" d="M703.6,247.3h3.5v41.2h-3.5V247.3z"/>
	<path class="st2" d="M715.8,247.3h3.5v41.2h-3.5V247.3z"/>
	<path class="st2" d="M731.4,253.1h-3.5v-4.6h3.5V253.1z M727.9,260.5h3.5v28h-3.5V260.5z"/>
	<path class="st2" d="M762.3,286.2c0,7.8-3.5,14.2-13.1,14.2c-3.7,0-7-1-8.5-1.5l0.3-3.5c2.1,1.1,5.2,2,8.2,2
		c8.9,0,9.7-6.5,9.7-14.4h-0.1c-1.9,4.1-4.9,5.5-8.5,5.5c-8.9,0-11.8-7.8-11.8-14c0-8.5,3.3-14.7,11.5-14.7c3.7,0,6.1,0.5,8.7,3.8
		h0.1v-3.2h3.5V286.2z M750.3,285.6c6.3,0,8.5-5.9,8.5-11c0-6.8-2-11.7-8.3-11.7c-6.6,0-8.3,6.3-8.3,11.7
		C742.3,280,744.5,285.6,750.3,285.6z"/>
	<path class="st2" d="M789.4,287.6c-2.4,1-5.5,1.5-8.1,1.5c-9.3,0-12.7-6.3-12.7-14.7c0-8.6,4.7-14.7,11.8-14.7
		c7.9,0,11.1,6.4,11.1,13.9v1.8h-19.2c0,5.9,3.2,10.7,9.2,10.7c2.5,0,6.2-1,7.9-2.1V287.6z M787.7,272.5c0-4.9-2-9.7-7.1-9.7
		c-5.1,0-8.2,5.1-8.2,9.7H787.7z"/>
	<path class="st2" d="M798.1,267.1c0-2.1,0-4.3-0.2-6.6h3.3v5h0.1c1.2-2.5,3.2-5.7,9.1-5.7c6.9,0,9.6,4.6,9.6,10.8v17.9h-3.5v-17
		c0-5.3-1.9-8.7-6.6-8.7c-6.3,0-8.3,5.5-8.3,10.2v15.5h-3.5V267.1z"/>
	<path class="st2" d="M840.7,263.5h-6.4v18.1c0,2.5,0.9,4.6,3.7,4.6c1.3,0,2.2-0.3,3.2-0.7l0.2,2.9c-0.8,0.3-2.5,0.8-4.2,0.8
		c-6.1,0-6.4-4.2-6.4-9.3v-16.4h-5.5v-3h5.5v-6.8l3.5-1.2v8h6.4V263.5z"/>
	<path class="st2" d="M848,283.9h4.4v4.6H848V283.9z"/>
</g>
</svg>
